%!PS-Adobe-3.0 EPSF-3.0
%%Creator: PlantUML v1.2023.10      
%%Title: noTitle
%%BoundingBox: 0 0 338 177
%%ColorUsage: Color
%%Origin: 0 0
%%EndComments

gsave
0 177 translate
.01 -.01 scale
/roundrect {
newpath
dup 3 index add 2 index 2 index add 2 index 180 270 arc
2 index 5 index add 1 index sub 2 index 2 index add 2 index 270 0 arc
2 index 5 index add 1 index sub 2 index 5 index add 2 index sub 2 index 0 90 arc
dup 3 index add 2 index 5 index add 2 index sub 2 index 90 180 arc
pop pop pop pop pop 
} def
/rquadto {
3 index 3 index 4 2 roll rcurveto
} def
/P$0 {
0 -176 rlineto
192 0 rlineto
0 176 rlineto
-192 0 rlineto
closepath
} def
/P$d {
178 0 rlineto
0 107 rlineto
35 -54 95 -89 rquadto
59 -34 131 -34 rquadto
126 0 214 100 rquadto
89 98 89 275 rquadto
0 181 -89 282 rquadto
-89 101 -215 101 rquadto
-59 0 -109 -23 rquadto
-48 -25 -101 -82 rquadto
0 365 rlineto
-192 0 rlineto
0 -1003 rlineto
closepath
} def
/P$7 {
0 153 rlineto
-131 0 rlineto
0 293 rlineto
0 87 3 103 rquadto
4 14 17 25 rquadto
14 9 34 9 rquadto
26 0 76 -18 rquadto
15 148 rlineto
-65 29 -151 29 rquadto
-51 0 -93 -17 rquadto
-40 -18 -60 -45 rquadto
-18 -28 -26 -75 rquadto
-6 -34 -6 -135 rquadto
0 -317 rlineto
-87 0 rlineto
0 -153 rlineto
87 0 rlineto
0 -143 rlineto
192 -112 rlineto
0 256 rlineto
131 0 rlineto
} def
/P$a {
-37 12 -117 29 rquadto
-79 17 -104 32 rquadto
-37 26 -37 67 rquadto
0 40 29 70 rquadto
29 29 76 29 rquadto
51 0 100 -34 rquadto
34 -26 45 -64 rquadto
7 -23 7 -93 rquadto
0 -37 rlineto
} def
/P$1d {
0 -1001 rlineto
123 0 rlineto
0 1001 rlineto
-123 0 rlineto
} def
/P$17 {
0 -726 rlineto
110 0 rlineto
0 103 rlineto
32 -54 89 -85 rquadto
57 -32 129 -32 rquadto
81 0 132 34 rquadto
51 32 73 92 rquadto
85 -126 223 -126 rquadto
107 0 165 59 rquadto
59 59 59 184 rquadto
0 498 rlineto
-123 0 rlineto
0 -457 rlineto
0 -73 -12 -106 rquadto
-10 -32 -42 -51 rquadto
-31 -20 -73 -20 rquadto
-76 0 -128 51 rquadto
-50 50 -50 162 rquadto
0 421 rlineto
-123 0 rlineto
0 -471 rlineto
0 -81 -29 -121 rquadto
-29 -42 -98 -42 rquadto
-51 0 -96 28 rquadto
-43 26 -64 79 rquadto
-18 51 -18 151 rquadto
0 376 rlineto
-123 0 rlineto
} def
/P$1j {
-276 -726 rlineto
131 0 rlineto
154 435 rlineto
25 70 46 145 rquadto
17 -57 45 -137 rquadto
162 -443 rlineto
126 0 rlineto
-275 726 rlineto
-115 0 rlineto
} def
/P$1 {
0 -726 rlineto
192 0 rlineto
0 726 rlineto
-192 0 rlineto
} def
/P$8 {
0 -1001 rlineto
192 0 rlineto
0 1001 rlineto
-192 0 rlineto
} def
/P$10 {
0 -201 112 -300 rquadto
92 -79 228 -79 rquadto
148 0 243 98 rquadto
95 96 95 270 rquadto
0 140 -42 221 rquadto
-42 79 -123 125 rquadto
-79 43 -173 43 rquadto
-153 0 -246 -98 rquadto
-93 -98 -93 -281 rquadto
closepath
} def
/P$4 {
0 -192 rlineto
192 0 rlineto
0 192 rlineto
-192 0 rlineto
} def
/P$y {
214 0 rlineto
98 0 154 -17 rquadto
57 -18 90 -53 rquadto
46 -46 73 -126 rquadto
26 -79 26 -193 rquadto
0 -156 -51 -240 rquadto
-51 -84 -125 -114 rquadto
-54 -20 -171 -20 rquadto
-210 0 rlineto
0 765 rlineto
} def
/P$1g {
0 -106 rlineto
-85 123 -231 123 rquadto
-64 0 -120 -25 rquadto
-54 -25 -82 -62 rquadto
-26 -37 -37 -90 rquadto
-7 -35 -7 -115 rquadto
0 -450 rlineto
123 0 rlineto
0 403 rlineto
0 96 7 129 rquadto
10 48 48 76 rquadto
37 28 93 28 rquadto
54 0 103 -28 rquadto
48 -29 68 -78 rquadto
20 -48 20 -142 rquadto
0 -389 rlineto
123 0 rlineto
0 726 rlineto
-109 0 rlineto
} def
/P$13 {
118 17 rlineto
7 54 42 81 rquadto
45 32 125 32 rquadto
85 0 131 -34 rquadto
46 -32 64 -95 rquadto
9 -37 7 -157 rquadto
-79 95 -200 95 rquadto
-150 0 -232 -107 rquadto
-81 -107 -81 -259 rquadto
0 -103 37 -190 rquadto
37 -89 107 -135 rquadto
71 -48 168 -48 rquadto
128 0 212 103 rquadto
0 -87 rlineto
112 0 rlineto
0 628 rlineto
0 170 -34 240 rquadto
-34 70 -109 110 rquadto
-75 42 -184 42 rquadto
-129 0 -209 -59 rquadto
-79 -57 -76 -175 rquadto
closepath
} def
/P$2 {
0 -95 46 -184 rquadto
46 -90 132 -137 rquadto
87 -46 193 -46 rquadto
165 0 270 107 rquadto
104 106 104 268 rquadto
0 165 -106 275 rquadto
-106 107 -267 107 rquadto
-100 0 -190 -45 rquadto
-90 -45 -137 -132 rquadto
-46 -87 -46 -212 rquadto
closepath
} def
/P$b {
0 -1001 rlineto
192 0 rlineto
0 360 rlineto
89 -101 210 -101 rquadto
132 0 218 96 rquadto
87 95 87 275 rquadto
0 185 -89 287 rquadto
-89 100 -214 100 rquadto
-62 0 -123 -31 rquadto
-60 -31 -104 -92 rquadto
0 106 rlineto
-178 0 rlineto
closepath
} def
/P$f {
0 -109 rlineto
-39 59 -104 93 rquadto
-64 32 -135 32 rquadto
-73 0 -131 -32 rquadto
-57 -32 -84 -90 rquadto
-25 -57 -25 -160 rquadto
0 -459 rlineto
192 0 rlineto
0 334 rlineto
0 153 9 187 rquadto
10 34 39 54 rquadto
28 20 71 20 rquadto
48 0 87 -26 rquadto
39 -28 53 -67 rquadto
14 -40 14 -196 rquadto
0 -306 rlineto
192 0 rlineto
0 726 rlineto
-178 0 rlineto
} def
/P$t {
0 -726 rlineto
121 0 rlineto
0 726 rlineto
-121 0 rlineto
} def
/P$o {
262 -373 rlineto
-251 -353 rlineto
234 0 rlineto
129 200 rlineto
134 -200 rlineto
226 0 rlineto
-246 343 rlineto
268 382 rlineto
-235 0 rlineto
-146 -225 rlineto
-150 225 rlineto
-225 0 rlineto
} def
/P$m {
-1 -84 -42 -126 rquadto
-40 -43 -100 -43 rquadto
-62 0 -104 45 rquadto
-40 46 -39 125 rquadto
285 0 rlineto
} def
/P$9 {
-173 -31 rlineto
28 -104 100 -154 rquadto
71 -51 214 -51 rquadto
128 0 190 31 rquadto
64 29 89 76 rquadto
25 46 25 171 rquadto
-1 223 rlineto
0 96 9 142 rquadto
9 45 34 96 rquadto
-189 0 rlineto
-7 -18 -18 -56 rquadto
-4 -17 -7 -23 rquadto
-48 48 -104 73 rquadto
-56 23 -120 23 rquadto
-110 0 -176 -60 rquadto
-64 -60 -64 -154 rquadto
0 -60 29 -109 rquadto
29 -48 81 -73 rquadto
53 -26 153 -45 rquadto
134 -25 187 -46 rquadto
0 -18 rlineto
0 -56 -28 -79 rquadto
-26 -23 -103 -23 rquadto
-51 0 -79 20 rquadto
-28 20 -46 70 rquadto
closepath
} def
/P$z {
17 107 rlineto
-51 10 -92 10 rquadto
-67 0 -104 -20 rquadto
-35 -21 -51 -56 rquadto
-14 -34 -14 -145 rquadto
0 -417 rlineto
-90 0 rlineto
0 -96 rlineto
90 0 rlineto
0 -179 rlineto
121 -73 rlineto
0 253 rlineto
123 0 rlineto
0 96 rlineto
-123 0 rlineto
0 423 rlineto
0 53 6 68 rquadto
6 14 20 23 rquadto
15 9 42 9 rquadto
21 0 54 -4 rquadto
} def
/P$16 {
-67 26 -201 46 rquadto
-75 10 -107 25 rquadto
-31 12 -48 39 rquadto
-17 26 -17 57 rquadto
0 50 37 82 rquadto
37 32 109 32 rquadto
71 0 126 -31 rquadto
54 -31 81 -85 rquadto
20 -40 20 -121 rquadto
0 -45 rlineto
} def
/P$1f {
0 -1001 rlineto
198 0 rlineto
237 709 rlineto
32 98 48 148 rquadto
17 -54 53 -160 rquadto
239 -696 rlineto
179 0 rlineto
0 1001 rlineto
-128 0 rlineto
0 -839 rlineto
-292 839 rlineto
-118 0 rlineto
-290 -853 rlineto
0 853 rlineto
-126 0 rlineto
} def
/P$6 {
0 115 43 170 rquadto
45 53 110 53 rquadto
70 0 118 -54 rquadto
48 -56 48 -164 rquadto
0 -112 -46 -167 rquadto
-45 -54 -117 -54 rquadto
-68 0 -114 54 rquadto
-43 53 -43 162 rquadto
} def
/P$h {
192 -28 rlineto
12 54 50 84 rquadto
37 29 106 29 rquadto
73 0 110 -28 rquadto
26 -18 26 -51 rquadto
0 -21 -14 -35 rquadto
-14 -14 -64 -25 rquadto
-232 -51 -295 -93 rquadto
-85 -59 -85 -164 rquadto
0 -93 73 -157 rquadto
75 -64 232 -64 rquadto
148 0 220 48 rquadto
73 48 100 143 rquadto
-181 32 rlineto
-10 -42 -43 -64 rquadto
-32 -23 -92 -23 rquadto
-76 0 -109 21 rquadto
-21 14 -21 39 rquadto
0 20 20 34 rquadto
25 18 178 54 rquadto
154 34 215 84 rquadto
59 51 59 143 rquadto
0 100 -84 171 rquadto
-82 71 -245 71 rquadto
-148 0 -235 -60 rquadto
-85 -60 -112 -164 rquadto
} def
/P$p {
0 107 51 165 rquadto
51 56 126 56 rquadto
75 0 125 -56 rquadto
51 -57 51 -167 rquadto
0 -106 -51 -164 rquadto
-50 -57 -125 -57 rquadto
-75 0 -126 57 rquadto
-51 57 -51 165 rquadto
closepath
} def
/P$14 {
0 143 56 209 rquadto
56 65 142 65 rquadto
84 0 142 -65 rquadto
57 -65 57 -204 rquadto
0 -132 -59 -200 rquadto
-59 -68 -142 -68 rquadto
-82 0 -140 67 rquadto
-56 65 -56 196 rquadto
} def
/P$19 {
-89 0 rlineto
204 -328 204 -657 rquadto
0 -128 -29 -254 rquadto
-23 -103 -64 -196 rquadto
-26 -60 -110 -204 rquadto
89 0 rlineto
128 170 189 343 rquadto
53 150 53 312 rquadto
0 184 -71 356 rquadto
-70 171 -170 301 rquadto
closepath
} def
/P$l {
192 32 rlineto
-37 104 -117 160 rquadto
-79 54 -198 54 rquadto
-189 0 -281 -125 rquadto
-71 -98 -71 -250 rquadto
0 -179 93 -281 rquadto
95 -103 240 -103 rquadto
160 0 254 107 rquadto
93 106 89 326 rquadto
-481 0 rlineto
3 85 46 134 rquadto
45 46 110 46 rquadto
45 0 75 -25 rquadto
31 -25 46 -79 rquadto
closepath
} def
/P$11 {
0 139 60 209 rquadto
60 68 153 68 rquadto
90 0 151 -70 rquadto
60 -70 60 -212 rquadto
0 -134 -60 -203 rquadto
-60 -70 -151 -70 rquadto
-92 0 -153 68 rquadto
-60 68 -60 209 rquadto
closepath
} def
/P$1i {
0 139 57 209 rquadto
59 68 139 68 rquadto
81 0 137 -65 rquadto
56 -67 56 -201 rquadto
0 -150 -57 -218 rquadto
-57 -70 -140 -70 rquadto
-82 0 -137 67 rquadto
-54 67 -54 210 rquadto
} def
/P$1k {
120 -18 rlineto
10 73 57 112 rquadto
46 39 131 39 rquadto
84 0 125 -34 rquadto
42 -34 42 -81 rquadto
0 -42 -37 -65 rquadto
-25 -17 -125 -42 rquadto
-135 -34 -189 -59 rquadto
-51 -25 -78 -68 rquadto
-26 -43 -26 -96 rquadto
0 -48 21 -89 rquadto
21 -42 60 -70 rquadto
28 -20 76 -34 rquadto
50 -15 107 -15 rquadto
84 0 148 25 rquadto
65 23 96 65 rquadto
31 42 42 112 rquadto
-120 17 rlineto
-7 -56 -48 -87 rquadto
-39 -31 -110 -31 rquadto
-84 0 -120 28 rquadto
-35 26 -35 65 rquadto
0 23 14 42 rquadto
15 20 48 32 rquadto
17 6 107 31 rquadto
131 35 182 57 rquadto
51 21 79 64 rquadto
29 42 29 104 rquadto
0 62 -35 117 rquadto
-34 53 -103 84 rquadto
-67 29 -153 29 rquadto
-140 0 -215 -59 rquadto
-73 -59 -93 -175 rquadto
} def
/P$e {
0 121 48 181 rquadto
50 57 118 57 rquadto
67 0 110 -53 rquadto
45 -54 45 -176 rquadto
0 -114 -46 -168 rquadto
-45 -56 -112 -56 rquadto
-70 0 -117 54 rquadto
-46 54 -46 160 rquadto
} def
/P$w {
404 0 rlineto
-7 -92 -46 -137 rquadto
-57 -70 -151 -70 rquadto
-85 0 -143 56 rquadto
-56 56 -62 151 rquadto
} def
/P$u {
0 -726 rlineto
110 0 rlineto
0 110 rlineto
42 -78 78 -101 rquadto
35 -25 79 -25 rquadto
62 0 126 39 rquadto
-42 114 rlineto
-45 -26 -90 -26 rquadto
-40 0 -73 25 rquadto
-31 23 -45 67 rquadto
-20 65 -20 143 rquadto
0 379 rlineto
-123 0 rlineto
} def
/P$5 {
218 26 rlineto
6 37 26 51 rquadto
26 21 85 21 rquadto
75 0 112 -23 rquadto
25 -15 37 -48 rquadto
9 -23 9 -87 rquadto
0 -106 rlineto
-85 117 -217 117 rquadto
-146 0 -231 -123 rquadto
-67 -98 -67 -243 rquadto
0 -182 87 -278 rquadto
87 -96 218 -96 rquadto
134 0 221 118 rquadto
0 -103 rlineto
179 0 rlineto
0 651 rlineto
0 129 -21 192 rquadto
-20 64 -59 100 rquadto
-37 35 -101 56 rquadto
-64 21 -160 21 rquadto
-185 0 -262 -64 rquadto
-76 -62 -76 -159 rquadto
0 -10 0 -23 rquadto
closepath
} def
/P$1h {
0 -92 rlineto
-70 109 -203 109 rquadto
-87 0 -160 -48 rquadto
-71 -48 -112 -134 rquadto
-39 -85 -39 -196 rquadto
0 -107 35 -196 rquadto
35 -89 107 -135 rquadto
73 -46 162 -46 rquadto
65 0 117 28 rquadto
51 26 82 71 rquadto
0 -359 rlineto
123 0 rlineto
0 1001 rlineto
-114 0 rlineto
closepath
} def
/P$1c {
121 15 rlineto
-20 125 -103 196 rquadto
-81 70 -200 70 rquadto
-148 0 -239 -96 rquadto
-90 -98 -90 -281 rquadto
0 -117 39 -204 rquadto
39 -89 118 -132 rquadto
79 -43 173 -43 rquadto
117 0 192 59 rquadto
76 59 96 170 rquadto
-118 18 rlineto
-17 -73 -60 -109 rquadto
-43 -37 -104 -37 rquadto
-93 0 -151 67 rquadto
-57 65 -57 209 rquadto
0 146 56 214 rquadto
56 65 145 65 rquadto
73 0 121 -43 rquadto
48 -45 60 -137 rquadto
} def
/P$j {
-178 0 rlineto
0 -106 rlineto
-43 62 -104 93 rquadto
-60 29 -121 29 rquadto
-125 0 -214 -101 rquadto
-89 -101 -89 -281 rquadto
0 -184 85 -279 rquadto
87 -96 220 -96 rquadto
121 0 210 101 rquadto
0 -360 rlineto
190 0 rlineto
0 1001 rlineto
closepath
} def
/P$n {
176 0 rlineto
0 100 rlineto
95 -115 226 -115 rquadto
70 0 121 29 rquadto
51 28 84 85 rquadto
46 -57 101 -85 rquadto
56 -29 118 -29 rquadto
79 0 134 32 rquadto
56 31 84 95 rquadto
20 45 20 150 rquadto
0 464 rlineto
-192 0 rlineto
0 -415 rlineto
0 -107 -20 -139 rquadto
-26 -40 -82 -40 rquadto
-39 0 -75 25 rquadto
-35 23 -51 71 rquadto
-15 46 -15 150 rquadto
0 348 rlineto
-192 0 rlineto
0 -398 rlineto
0 -104 -10 -135 rquadto
-9 -31 -31 -45 rquadto
-21 -15 -57 -15 rquadto
-45 0 -81 25 rquadto
-34 23 -50 68 rquadto
-15 43 -15 148 rquadto
0 353 rlineto
-192 0 rlineto
0 -726 rlineto
} def
/P$x {
0 -1001 rlineto
345 0 rlineto
117 0 178 14 rquadto
85 18 146 71 rquadto
79 67 118 171 rquadto
39 103 39 237 rquadto
0 114 -26 203 rquadto
-26 87 -68 145 rquadto
-40 57 -90 90 rquadto
-50 32 -120 50 rquadto
-68 17 -159 17 rquadto
-362 0 rlineto
closepath
} def
/P$q {
15 -21 34 -32 rquadto
18 -10 40 -10 rquadto
37 0 60 26 rquadto
23 25 23 85 rquadto
0 145 rlineto
0 60 -23 87 rquadto
-23 26 -60 26 rquadto
-34 0 -54 -20 rquadto
-20 -18 -31 -70 rquadto
-4 -35 -23 -54 rquadto
-32 -37 -93 -59 rquadto
-60 -21 -123 -21 rquadto
-76 0 -140 32 rquadto
-62 32 -112 107 rquadto
-48 75 -48 178 rquadto
0 109 rlineto
0 123 89 206 rquadto
89 81 248 81 rquadto
93 0 159 -25 rquadto
39 -15 81 -59 rquadto
26 -26 40 -34 rquadto
15 -7 35 -7 rquadto
32 0 57 26 rquadto
26 25 26 59 rquadto
0 34 -34 75 rquadto
-50 57 -129 90 rquadto
-107 45 -237 45 rquadto
-151 0 -271 -62 rquadto
-98 -50 -167 -156 rquadto
-68 -107 -68 -235 rquadto
0 -115 rlineto
0 -132 60 -246 rquadto
62 -115 171 -176 rquadto
109 -62 232 -62 rquadto
73 0 137 17 rquadto
65 15 120 51 rquadto
closepath
} def
/P$12 {
0 -726 rlineto
110 0 rlineto
0 103 rlineto
79 -118 231 -118 rquadto
65 0 120 23 rquadto
54 23 81 62 rquadto
28 37 39 90 rquadto
7 34 7 118 rquadto
0 446 rlineto
-123 0 rlineto
0 -442 rlineto
0 -75 -14 -110 rquadto
-14 -37 -51 -59 rquadto
-35 -23 -85 -23 rquadto
-78 0 -135 50 rquadto
-56 50 -56 189 rquadto
0 396 rlineto
-123 0 rlineto
} def
/P$c {
0 112 35 165 rquadto
50 76 132 76 rquadto
62 0 107 -53 rquadto
45 -54 45 -171 rquadto
0 -125 -45 -179 rquadto
-45 -54 -115 -54 rquadto
-68 0 -115 54 rquadto
-45 53 -45 162 rquadto
} def
/P$1b {
0 -1001 rlineto
123 0 rlineto
0 359 rlineto
85 -100 217 -100 rquadto
81 0 140 32 rquadto
59 31 84 87 rquadto
26 54 26 162 rquadto
0 459 rlineto
-123 0 rlineto
0 -459 rlineto
0 -93 -40 -134 rquadto
-39 -42 -112 -42 rquadto
-54 0 -103 28 rquadto
-48 28 -68 76 rquadto
-20 48 -20 134 rquadto
0 396 rlineto
-123 0 rlineto
} def
/P$r {
0 -884 rlineto
-329 0 rlineto
0 -117 rlineto
793 0 rlineto
0 117 rlineto
-331 0 rlineto
0 884 rlineto
-132 0 rlineto
} def
/P$s {
0 -140 rlineto
121 0 rlineto
0 140 rlineto
-121 0 rlineto
closepath
} def
/P$15 {
-67 57 -131 82 rquadto
-62 23 -135 23 rquadto
-118 0 -184 -57 rquadto
-64 -59 -64 -151 rquadto
0 -53 23 -96 rquadto
25 -43 64 -70 rquadto
40 -26 89 -40 rquadto
35 -9 109 -18 rquadto
150 -17 220 -42 rquadto
0 -25 0 -31 rquadto
0 -76 -34 -106 rquadto
-46 -42 -140 -42 rquadto
-85 0 -128 31 rquadto
-40 29 -60 106 rquadto
-120 -15 rlineto
15 -78 53 -125 rquadto
39 -46 109 -71 rquadto
71 -26 165 -26 rquadto
92 0 150 21 rquadto
57 21 84 54 rquadto
28 32 39 84 rquadto
6 31 6 112 rquadto
0 164 rlineto
0 171 7 217 rquadto
7 45 31 87 rquadto
-128 0 rlineto
-18 -39 -25 -89 rquadto
closepath
} def
/P$k {
0 115 32 167 rquadto
46 75 129 75 rquadto
65 0 112 -56 rquadto
46 -56 46 -168 rquadto
0 -125 -45 -179 rquadto
-45 -54 -115 -54 rquadto
-68 0 -115 54 rquadto
-45 53 -45 162 rquadto
} def
/P$18 {
-103 -129 -173 -301 rquadto
-70 -171 -70 -356 rquadto
0 -162 53 -312 rquadto
60 -173 190 -343 rquadto
87 0 rlineto
-82 142 -109 203 rquadto
-42 93 -65 196 rquadto
-29 126 -29 256 rquadto
0 329 204 657 rquadto
-87 0 rlineto
} def
/P$i {
-192 0 rlineto
0 -726 rlineto
178 0 rlineto
0 103 rlineto
46 -71 82 -95 rquadto
35 -23 82 -23 rquadto
65 0 126 35 rquadto
-59 167 rlineto
-48 -31 -90 -31 rquadto
-40 0 -68 23 rquadto
-26 21 -43 79 rquadto
-15 57 -15 242 rquadto
0 225 rlineto
} def
/P$1e {
0 139 60 209 rquadto
60 68 153 68 rquadto
90 0 151 -70 rquadto
60 -70 60 -212 rquadto
0 -134 -60 -203 rquadto
-60 -70 -151 -70 rquadto
-92 0 -153 68 rquadto
-60 68 -60 209 rquadto
} def
/P$g {
-192 0 rlineto
0 -370 rlineto
0 -117 -12 -151 rquadto
-12 -35 -40 -54 rquadto
-26 -18 -65 -18 rquadto
-50 0 -90 28 rquadto
-39 26 -54 71 rquadto
-14 45 -14 167 rquadto
0 328 rlineto
-192 0 rlineto
0 -726 rlineto
179 0 rlineto
0 107 rlineto
93 -123 239 -123 rquadto
62 0 115 23 rquadto
53 21 79 57 rquadto
26 35 37 81 rquadto
10 43 10 128 rquadto
0 451 rlineto
} def
/P$3 {
0 107 51 165 rquadto
51 56 126 56 rquadto
75 0 125 -56 rquadto
51 -57 51 -167 rquadto
0 -106 -51 -164 rquadto
-50 -57 -125 -57 rquadto
-75 0 -126 57 rquadto
-51 57 -51 165 rquadto
} def
/P$v {
128 15 rlineto
-31 112 -112 175 rquadto
-81 60 -207 60 rquadto
-159 0 -253 -98 rquadto
-92 -98 -92 -275 rquadto
0 -184 93 -284 rquadto
95 -101 245 -101 rquadto
145 0 237 100 rquadto
92 98 92 278 rquadto
0 10 0 32 rquadto
-542 0 rlineto
7 118 67 182 rquadto
60 64 153 64 rquadto
67 0 114 -35 rquadto
48 -35 76 -114 rquadto
closepath
} def
/P$1a {
-387 -1001 rlineto
143 0 rlineto
260 728 rlineto
31 87 51 164 rquadto
23 -82 54 -164 rquadto
270 -728 rlineto
135 0 rlineto
-392 1001 rlineto
-137 0 rlineto
} def
150 setlinewidth
0 0 0 setrgbcolor
newpath
850 600 moveto
32450 600 lineto
32700 850 lineto
33400 2960 lineto
33450 2960 lineto
33700 3210 lineto
33700 17350 lineto
33450 17600 lineto
850 17600 lineto
600 17350 lineto
600 850 lineto
850 600 lineto
stroke
150 setlinewidth
0 0 0 setrgbcolor
newpath
600 2960 moveto
32800 0 rlineto
stroke
0 setlinewidth
[] 0 setdash
0 0 0 setrgbcolor
newpath
1100 1428 moveto
P$0
1100 2253 moveto
P$1
fill
0 setlinewidth
[] 0 setdash
0 0 0 setrgbcolor
newpath
1456 1879 moveto
P$2
1653 1890 moveto
P$3
fill
0 setlinewidth
[] 0 setdash
0 0 0 setrgbcolor
newpath
2400 2253 moveto
P$4
fill
0 setlinewidth
[] 0 setdash
0 0 0 setrgbcolor
newpath
2782 2301 moveto
P$5
2954 1875 moveto
P$6
fill
0 setlinewidth
[] 0 setdash
0 0 0 setrgbcolor
newpath
3700 1428 moveto
P$0
3700 2253 moveto
P$1
fill
0 setlinewidth
[] 0 setdash
0 0 0 setrgbcolor
newpath
4432 1526 moveto
P$7
fill
0 setlinewidth
[] 0 setdash
0 0 0 setrgbcolor
newpath
4600 2253 moveto
P$8
fill
0 setlinewidth
[] 0 setdash
0 0 0 setrgbcolor
newpath
5143 1748 moveto
P$9
5401 1904 moveto
P$a
fill
0 setlinewidth
[] 0 setdash
0 0 0 setrgbcolor
newpath
5792 2253 moveto
P$b
5982 1875 moveto
P$c
fill
0 setlinewidth
[] 0 setdash
0 0 0 setrgbcolor
newpath
6700 2253 moveto
P$4
fill
0 setlinewidth
[] 0 setdash
0 0 0 setrgbcolor
newpath
7095 1526 moveto
P$d
7284 1878 moveto
P$e
fill
0 setlinewidth
[] 0 setdash
0 0 0 setrgbcolor
newpath
8000 2253 moveto
P$8
fill
0 setlinewidth
[] 0 setdash
0 0 0 setrgbcolor
newpath
8878 2253 moveto
P$f
fill
0 setlinewidth
[] 0 setdash
0 0 0 setrgbcolor
newpath
9960 2253 moveto
P$g
fill
0 setlinewidth
[] 0 setdash
0 0 0 setrgbcolor
newpath
10532 1526 moveto
P$7
fill
0 setlinewidth
[] 0 setdash
0 0 0 setrgbcolor
newpath
10632 2045 moveto
P$h
fill
0 setlinewidth
[] 0 setdash
0 0 0 setrgbcolor
newpath
11500 2253 moveto
P$4
fill
0 setlinewidth
[] 0 setdash
0 0 0 setrgbcolor
newpath
11882 2301 moveto
P$5
12054 1875 moveto
P$6
fill
0 setlinewidth
[] 0 setdash
0 0 0 setrgbcolor
newpath
12984 2253 moveto
P$i
fill
0 setlinewidth
[] 0 setdash
0 0 0 setrgbcolor
newpath
13543 1748 moveto
P$9
13801 1904 moveto
P$a
fill
0 setlinewidth
[] 0 setdash
0 0 0 setrgbcolor
newpath
14865 2253 moveto
P$j
14353 1875 moveto
P$k
fill
0 setlinewidth
[] 0 setdash
0 0 0 setrgbcolor
newpath
15100 2253 moveto
P$8
fill
0 setlinewidth
[] 0 setdash
0 0 0 setrgbcolor
newpath
15920 2022 moveto
P$l
15931 1828 moveto
P$m
fill
0 setlinewidth
[] 0 setdash
0 0 0 setrgbcolor
newpath
16400 2253 moveto
P$4
fill
0 setlinewidth
[] 0 setdash
0 0 0 setrgbcolor
newpath
16795 1526 moveto
P$d
16984 1878 moveto
P$e
fill
0 setlinewidth
[] 0 setdash
0 0 0 setrgbcolor
newpath
17700 2253 moveto
P$8
fill
0 setlinewidth
[] 0 setdash
0 0 0 setrgbcolor
newpath
18243 1748 moveto
P$9
18501 1904 moveto
P$a
fill
0 setlinewidth
[] 0 setdash
0 0 0 setrgbcolor
newpath
19560 2253 moveto
P$g
fill
0 setlinewidth
[] 0 setdash
0 0 0 setrgbcolor
newpath
20132 1526 moveto
P$7
fill
0 setlinewidth
[] 0 setdash
0 0 0 setrgbcolor
newpath
20778 2253 moveto
P$f
fill
0 setlinewidth
[] 0 setdash
0 0 0 setrgbcolor
newpath
21185 1526 moveto
P$n
fill
0 setlinewidth
[] 0 setdash
0 0 0 setrgbcolor
newpath
22400 2253 moveto
P$8
fill
0 setlinewidth
[] 0 setdash
0 0 0 setrgbcolor
newpath
22800 2253 moveto
P$4
fill
0 setlinewidth
[] 0 setdash
0 0 0 setrgbcolor
newpath
23620 2022 moveto
P$l
23631 1828 moveto
P$m
fill
0 setlinewidth
[] 0 setdash
0 0 0 setrgbcolor
newpath
24007 2253 moveto
P$o
fill
0 setlinewidth
[] 0 setdash
0 0 0 setrgbcolor
newpath
25043 1748 moveto
P$9
25301 1904 moveto
P$a
fill
0 setlinewidth
[] 0 setdash
0 0 0 setrgbcolor
newpath
25685 1526 moveto
P$n
fill
0 setlinewidth
[] 0 setdash
0 0 0 setrgbcolor
newpath
26895 1526 moveto
P$d
27084 1878 moveto
P$e
fill
0 setlinewidth
[] 0 setdash
0 0 0 setrgbcolor
newpath
27800 2253 moveto
P$8
fill
0 setlinewidth
[] 0 setdash
0 0 0 setrgbcolor
newpath
28620 2022 moveto
P$l
28631 1828 moveto
P$m
fill
0 setlinewidth
[] 0 setdash
0 0 0 setrgbcolor
newpath
29032 2045 moveto
P$h
fill
0 setlinewidth
[] 0 setdash
0 0 0 setrgbcolor
newpath
29900 2253 moveto
P$4
fill
0 setlinewidth
[] 0 setdash
0 0 0 setrgbcolor
newpath
30965 2253 moveto
P$j
30453 1875 moveto
P$k
fill
0 setlinewidth
[] 0 setdash
0 0 0 setrgbcolor
newpath
31532 1526 moveto
P$7
fill
0 setlinewidth
[] 0 setdash
0 0 0 setrgbcolor
newpath
31656 1879 moveto
P$2
31853 1890 moveto
P$p
fill
0.95 0.95 0.95 setrgbcolor
22500 11843 5850 4200 250 roundrect
closepath eofill
50 setlinewidth
0.09 0.09 0.09 setrgbcolor
22500 11843 5850 4200 250 roundrect
closepath stroke
0.68 0.82 0.7 setrgbcolor
newpath
14325 5800 1100 0 360 arc
closepath eofill
100 setlinewidth
0.09 0.09 0.09 setrgbcolor
newpath
14325 5800 1100 0 360 arc
closepath stroke
0 setlinewidth
[] 0 setdash
0 0 0 setrgbcolor
newpath
14601 5387 moveto
P$q
fill
0 setlinewidth
[] 0 setdash
0 0 0 setrgbcolor
newpath
16737 6372 moveto
P$r
fill
0 setlinewidth
[] 0 setdash
0 0 0 setrgbcolor
newpath
17368 5511 moveto
P$s
17368 6372 moveto
P$t
fill
0 setlinewidth
[] 0 setdash
0 0 0 setrgbcolor
newpath
17665 6372 moveto
P$u
fill
0 setlinewidth
[] 0 setdash
0 0 0 setrgbcolor
newpath
18664 6138 moveto
P$v
18260 5940 moveto
P$w
fill
0 setlinewidth
[] 0 setdash
0 0 0 setrgbcolor
newpath
18982 6372 moveto
P$x
19115 6254 moveto
P$y
fill
0 setlinewidth
[] 0 setdash
0 0 0 setrgbcolor
newpath
20235 6263 moveto
P$z
fill
0 setlinewidth
[] 0 setdash
0 0 0 setrgbcolor
newpath
20321 6010 moveto
P$10
20448 6010 moveto
P$11
fill
50 setlinewidth
0.09 0.09 0.09 setrgbcolor
newpath
5950 7400 moveto
22300 0 rlineto
stroke
50 setlinewidth
0.09 0.09 0.09 setrgbcolor
newpath
5950 8200 moveto
22300 0 rlineto
stroke
0.52 0.75 0.52 setrgbcolor
newpath
6950 9630 300 0 360 arc
closepath eofill
100 setlinewidth
0.01 0.5 0.28 setrgbcolor
newpath
6950 9630 300 0 360 arc
closepath stroke
0 setlinewidth
[] 0 setdash
0 0 0 setrgbcolor
newpath
7943 9192 moveto
P$s
7943 10053 moveto
P$t
fill
0 setlinewidth
[] 0 setdash
0 0 0 setrgbcolor
newpath
8242 10053 moveto
P$12
fill
0 setlinewidth
[] 0 setdash
0 0 0 setrgbcolor
newpath
9310 9943 moveto
P$z
fill
0 setlinewidth
[] 0 setdash
0 0 0 setrgbcolor
newpath
9820 10114 moveto
P$13
9921 9676 moveto
P$14
fill
0 setlinewidth
[] 0 setdash
0 0 0 setrgbcolor
newpath
11139 9818 moveto
P$v
10735 9620 moveto
P$w
fill
0 setlinewidth
[] 0 setdash
0 0 0 setrgbcolor
newpath
11710 9943 moveto
P$z
fill
0 setlinewidth
[] 0 setdash
0 0 0 setrgbcolor
newpath
11857 10053 moveto
P$x
11990 9934 moveto
P$y
fill
0 setlinewidth
[] 0 setdash
0 0 0 setrgbcolor
newpath
12843 9192 moveto
P$s
12843 10053 moveto
P$t
fill
0 setlinewidth
[] 0 setdash
0 0 0 setrgbcolor
newpath
13615 9964 moveto
P$15
13606 9689 moveto
P$16
fill
0 setlinewidth
[] 0 setdash
0 0 0 setrgbcolor
newpath
13942 10053 moveto
P$17
fill
0 setlinewidth
[] 0 setdash
0 0 0 setrgbcolor
newpath
15539 9818 moveto
P$v
15135 9620 moveto
P$w
fill
0 setlinewidth
[] 0 setdash
0 0 0 setrgbcolor
newpath
16110 9943 moveto
P$z
fill
0 setlinewidth
[] 0 setdash
0 0 0 setrgbcolor
newpath
16739 9818 moveto
P$v
16335 9620 moveto
P$w
fill
0 setlinewidth
[] 0 setdash
0 0 0 setrgbcolor
newpath
17040 10053 moveto
P$u
fill
0 setlinewidth
[] 0 setdash
0 0 0 setrgbcolor
newpath
17778 10348 moveto
P$18
fill
0 setlinewidth
[] 0 setdash
0 0 0 setrgbcolor
newpath
18123 10348 moveto
P$19
fill
0.52 0.75 0.52 setrgbcolor
newpath
6950 11391 300 0 360 arc
closepath eofill
100 setlinewidth
0.01 0.5 0.28 setrgbcolor
newpath
6950 11391 300 0 360 arc
closepath stroke
0 setlinewidth
[] 0 setdash
0 0 0 setrgbcolor
newpath
8243 11814 moveto
P$1a
fill
0 setlinewidth
[] 0 setdash
0 0 0 setrgbcolor
newpath
9339 11579 moveto
P$v
8935 11381 moveto
P$w
fill
0 setlinewidth
[] 0 setdash
0 0 0 setrgbcolor
newpath
9642 11814 moveto
P$1b
fill
0 setlinewidth
[] 0 setdash
0 0 0 setrgbcolor
newpath
10443 10953 moveto
P$s
10443 11814 moveto
P$t
fill
0 setlinewidth
[] 0 setdash
0 0 0 setrgbcolor
newpath
11215 11548 moveto
P$1c
fill
0 setlinewidth
[] 0 setdash
0 0 0 setrgbcolor
newpath
11439 11814 moveto
P$1d
fill
0 setlinewidth
[] 0 setdash
0 0 0 setrgbcolor
newpath
12239 11579 moveto
P$v
11835 11381 moveto
P$w
fill
0 setlinewidth
[] 0 setdash
0 0 0 setrgbcolor
newpath
12557 11814 moveto
P$x
12690 11695 moveto
P$y
fill
0 setlinewidth
[] 0 setdash
0 0 0 setrgbcolor
newpath
13810 11704 moveto
P$z
fill
0 setlinewidth
[] 0 setdash
0 0 0 setrgbcolor
newpath
13896 11451 moveto
P$10
14023 11451 moveto
P$1e
fill
0 setlinewidth
[] 0 setdash
0 0 0 setrgbcolor
newpath
15120 11875 moveto
P$13
15221 11437 moveto
P$14
fill
0 setlinewidth
[] 0 setdash
0 0 0 setrgbcolor
newpath
16439 11579 moveto
P$v
16035 11381 moveto
P$w
fill
0 setlinewidth
[] 0 setdash
0 0 0 setrgbcolor
newpath
17010 11704 moveto
P$z
fill
0 setlinewidth
[] 0 setdash
0 0 0 setrgbcolor
newpath
17154 11814 moveto
P$1f
fill
0 setlinewidth
[] 0 setdash
0 0 0 setrgbcolor
newpath
18196 11451 moveto
P$10
18323 11451 moveto
P$1e
fill
0 setlinewidth
[] 0 setdash
0 0 0 setrgbcolor
newpath
19518 11814 moveto
P$1g
fill
0 setlinewidth
[] 0 setdash
0 0 0 setrgbcolor
newpath
19842 11814 moveto
P$12
fill
0 setlinewidth
[] 0 setdash
0 0 0 setrgbcolor
newpath
20910 11704 moveto
P$z
fill
0 setlinewidth
[] 0 setdash
0 0 0 setrgbcolor
newpath
21539 11579 moveto
P$v
21135 11381 moveto
P$w
fill
0 setlinewidth
[] 0 setdash
0 0 0 setrgbcolor
newpath
22314 11814 moveto
P$1h
21925 11451 moveto
P$1i
fill
0 setlinewidth
[] 0 setdash
0 0 0 setrgbcolor
newpath
22912 11814 moveto
P$r
fill
0 setlinewidth
[] 0 setdash
0 0 0 setrgbcolor
newpath
23496 11451 moveto
P$10
23623 11451 moveto
P$1e
fill
0 setlinewidth
[] 0 setdash
0 0 0 setrgbcolor
newpath
24578 12109 moveto
P$18
fill
0 setlinewidth
[] 0 setdash
0 0 0 setrgbcolor
newpath
24923 12109 moveto
P$19
fill
0.52 0.75 0.52 setrgbcolor
newpath
6950 13152 300 0 360 arc
closepath eofill
100 setlinewidth
0.01 0.5 0.28 setrgbcolor
newpath
6950 13152 300 0 360 arc
closepath stroke
0 setlinewidth
[] 0 setdash
0 0 0 setrgbcolor
newpath
8143 13575 moveto
P$1j
fill
0 setlinewidth
[] 0 setdash
0 0 0 setrgbcolor
newpath
8596 13212 moveto
P$10
8723 13212 moveto
P$1e
fill
0 setlinewidth
[] 0 setdash
0 0 0 setrgbcolor
newpath
9443 12714 moveto
P$s
9443 13575 moveto
P$t
fill
0 setlinewidth
[] 0 setdash
0 0 0 setrgbcolor
newpath
10214 13575 moveto
P$1h
9825 13212 moveto
P$1i
fill
0 setlinewidth
[] 0 setdash
0 0 0 setrgbcolor
newpath
10893 13358 moveto
P$1k
fill
0 setlinewidth
[] 0 setdash
0 0 0 setrgbcolor
newpath
12139 13340 moveto
P$v
11735 13142 moveto
P$w
fill
0 setlinewidth
[] 0 setdash
0 0 0 setrgbcolor
newpath
12710 13465 moveto
P$z
fill
0 setlinewidth
[] 0 setdash
0 0 0 setrgbcolor
newpath
12857 13575 moveto
P$x
12990 13456 moveto
P$y
fill
0 setlinewidth
[] 0 setdash
0 0 0 setrgbcolor
newpath
13843 12714 moveto
P$s
13843 13575 moveto
P$t
fill
0 setlinewidth
[] 0 setdash
0 0 0 setrgbcolor
newpath
14615 13486 moveto
P$15
14606 13211 moveto
P$16
fill
0 setlinewidth
[] 0 setdash
0 0 0 setrgbcolor
newpath
14942 13575 moveto
P$17
fill
0 setlinewidth
[] 0 setdash
0 0 0 setrgbcolor
newpath
16539 13340 moveto
P$v
16135 13142 moveto
P$w
fill
0 setlinewidth
[] 0 setdash
0 0 0 setrgbcolor
newpath
17110 13465 moveto
P$z
fill
0 setlinewidth
[] 0 setdash
0 0 0 setrgbcolor
newpath
17739 13340 moveto
P$v
17335 13142 moveto
P$w
fill
0 setlinewidth
[] 0 setdash
0 0 0 setrgbcolor
newpath
18040 13575 moveto
P$u
fill
0 setlinewidth
[] 0 setdash
0 0 0 setrgbcolor
newpath
18778 13870 moveto
P$18
fill
0 setlinewidth
[] 0 setdash
0 0 0 setrgbcolor
newpath
19043 12714 moveto
P$s
19043 13575 moveto
P$t
fill
0 setlinewidth
[] 0 setdash
0 0 0 setrgbcolor
newpath
19342 13575 moveto
P$12
fill
0 setlinewidth
[] 0 setdash
0 0 0 setrgbcolor
newpath
20410 13465 moveto
P$z
fill
0 setlinewidth
[] 0 setdash
0 0 0 setrgbcolor
newpath
20623 13870 moveto
P$19
fill
0.52 0.75 0.52 setrgbcolor
newpath
6950 14913 300 0 360 arc
closepath eofill
100 setlinewidth
0.01 0.5 0.28 setrgbcolor
newpath
6950 14913 300 0 360 arc
closepath stroke
0 setlinewidth
[] 0 setdash
0 0 0 setrgbcolor
newpath
8143 15336 moveto
P$1j
fill
0 setlinewidth
[] 0 setdash
0 0 0 setrgbcolor
newpath
8596 14973 moveto
P$10
8723 14973 moveto
P$1e
fill
0 setlinewidth
[] 0 setdash
0 0 0 setrgbcolor
newpath
9443 14475 moveto
P$s
9443 15336 moveto
P$t
fill
0 setlinewidth
[] 0 setdash
0 0 0 setrgbcolor
newpath
10214 15336 moveto
P$1h
9825 14973 moveto
P$1i
fill
0 setlinewidth
[] 0 setdash
0 0 0 setrgbcolor
newpath
10893 15118 moveto
P$1k
fill
0 setlinewidth
[] 0 setdash
0 0 0 setrgbcolor
newpath
12139 15101 moveto
P$v
11735 14903 moveto
P$w
fill
0 setlinewidth
[] 0 setdash
0 0 0 setrgbcolor
newpath
12710 15226 moveto
P$z
fill
0 setlinewidth
[] 0 setdash
0 0 0 setrgbcolor
newpath
12854 15336 moveto
P$1f
fill
0 setlinewidth
[] 0 setdash
0 0 0 setrgbcolor
newpath
13896 14973 moveto
P$10
14023 14973 moveto
P$1e
fill
0 setlinewidth
[] 0 setdash
0 0 0 setrgbcolor
newpath
15218 15336 moveto
P$1g
fill
0 setlinewidth
[] 0 setdash
0 0 0 setrgbcolor
newpath
15542 15336 moveto
P$12
fill
0 setlinewidth
[] 0 setdash
0 0 0 setrgbcolor
newpath
16610 15226 moveto
P$z
fill
0 setlinewidth
[] 0 setdash
0 0 0 setrgbcolor
newpath
17239 15101 moveto
P$v
16835 14903 moveto
P$w
fill
0 setlinewidth
[] 0 setdash
0 0 0 setrgbcolor
newpath
18014 15336 moveto
P$1h
17625 14973 moveto
P$1i
fill
0 setlinewidth
[] 0 setdash
0 0 0 setrgbcolor
newpath
18612 15336 moveto
P$r
fill
0 setlinewidth
[] 0 setdash
0 0 0 setrgbcolor
newpath
19196 14973 moveto
P$10
19323 14973 moveto
P$1e
fill
0 setlinewidth
[] 0 setdash
0 0 0 setrgbcolor
newpath
20278 15631 moveto
P$18
fill
0 setlinewidth
[] 0 setdash
0 0 0 setrgbcolor
newpath
20843 15336 moveto
P$1a
fill
0 setlinewidth
[] 0 setdash
0 0 0 setrgbcolor
newpath
21939 15101 moveto
P$v
21535 14903 moveto
P$w
fill
0 setlinewidth
[] 0 setdash
0 0 0 setrgbcolor
newpath
22242 15336 moveto
P$1b
fill
0 setlinewidth
[] 0 setdash
0 0 0 setrgbcolor
newpath
23043 14475 moveto
P$s
23043 15336 moveto
P$t
fill
0 setlinewidth
[] 0 setdash
0 0 0 setrgbcolor
newpath
23815 15070 moveto
P$1c
fill
0 setlinewidth
[] 0 setdash
0 0 0 setrgbcolor
newpath
24039 15336 moveto
P$1d
fill
0 setlinewidth
[] 0 setdash
0 0 0 setrgbcolor
newpath
24839 15101 moveto
P$v
24435 14903 moveto
P$w
fill
0 setlinewidth
[] 0 setdash
0 0 0 setrgbcolor
newpath
25157 15336 moveto
P$x
25290 15217 moveto
P$y
fill
0 setlinewidth
[] 0 setdash
0 0 0 setrgbcolor
newpath
26410 15226 moveto
P$z
fill
0 setlinewidth
[] 0 setdash
0 0 0 setrgbcolor
newpath
26496 14973 moveto
P$10
26623 14973 moveto
P$1e
fill
0 setlinewidth
[] 0 setdash
0 0 0 setrgbcolor
newpath
27423 15631 moveto
P$19
fill
grestore
showpage
%plantuml done
%%EOF
